Intersection of ARs to HL genes - Two additional approaches
…
# Report chr, start, end from TADs and id from ARs and Gene

ARs_in_HL_TADs <- data.frame(chr = genes_in_TADs[my_subject]@seqnames,
           start = genes_in_TADs[my_subject]@ranges@start,
           end = genes_in_TADs[my_subject]@ranges@start + genes_in_TADs[my_subject]@ranges@width,
           AR_id = intronic_TSARs_coord[my_query]$id,
           Gene_id = genes_in_TADs[my_subject]$id)

Finally, we will count the number of AR elements per HL gene.

ARs_in_HL_TADs_count <- ARs_in_HL_TADs %>% group_by(Gene_id) %>% summarize(count = n()) %>% arrange(desc(count))
ARs_in_HL_TADs_count

## # A tibble: 89 x 2
##    Gene_id count
##    <chr>   <int>
##  1 SFXN3      25
##  2 ADGRV1     10
##  3 DLG5        8
##  4 TBX4        8
##  5 DIAPH3      7
##  6 SUGT1       7
##  7 ACVR2A      6
##  8 GATA2       6
##  9 H1FX        6
## 10 NR6A1       6
## # ... with 79 more rows
…
